%% Do not edit this file; it is automatically
%% generated from LSR http://lsr.dsi.unimi.it
%% This file is in the public domain.
\version "2.13.31"

\header {
  lsrtags = "text, titles"

%% Translation of GIT committish: 0b55335aeca1de539bf1125b717e0c21bb6fa31b
  texidoces = "
Con algo de código de Scheme, se puede añadir fácilmente la fecha
actual a una partitura.
"
  doctitlees = "Añadir la fecha actual a una partitura"


%% Translation of GIT committish: 05624d5147843d2fcbd6e4e126f1fd43142ac6e5
  texidocfr = "
Avec un peu de code Scheme, voici comment ajouter facilement
la date du jour à votre partition.
"

  doctitlefr = "Ajout de la date du jour à une partition"

  texidoc = "
With a little Scheme code, the current date can easily be added to a
score.

"
  doctitle = "Adding the current date to a score"
} % begin verbatim

% first, define a variable to hold the formatted date:
date = #(strftime "%d-%m-%Y" (localtime (current-time)))

% use it in the title block:
\header {
  title = "Including the date!"
  subtitle = \date
}

\score {
  \relative c'' {
    c4 c c c
  }
}
% and use it in a \markup block:
\markup {
  \date
}

