%% Do not edit this file; it is automatically
%% generated from LSR http://lsr.dsi.unimi.it
%% This file is in the public domain.
\version "2.13.31"

\header {
  lsrtags = "ancient-notation"

%% Translation of GIT committish: 0b55335aeca1de539bf1125b717e0c21bb6fa31b
  texidoces = "
Las indicaciones de compás también se pueden grabar en estilo antiguo.

"
  doctitlees = "Indicaciones de compás antiguas"

  texidoc = "
Time signatures may also be engraved in an old style.



"
  doctitle = "Ancient time signatures"
} % begin verbatim

{
  \override Staff.TimeSignature #'style = #'neomensural
  s1
}

