%% Do not edit this file; it is automatically
%% generated from LSR http://lsr.dsi.unimi.it
%% This file is in the public domain.
\version "2.13.31"

\header {
  lsrtags = "fretted-strings"

  texidoc = "
Fret diagrams can be oriented in three ways.  By default the top string
or fret in the different orientations will be aligned.

"
  doctitle = "Changing fret orientations"
} % begin verbatim

\include "predefined-guitar-fretboards.ly"

<<
  \chords {
    c1
    c1
    c1
  }
  \new FretBoards {
    \chordmode {
      c1
      \override FretBoard #'(fret-diagram-details orientation) =
        #'landscape
      c1
      \override FretBoard #'(fret-diagram-details orientation) =
        #'opposing-landscape
      c1
    }
  }
  \new Voice {
    c'1
    c'1
    c'
  }
>>

