%% Do not edit this file; it is automatically
%% generated from LSR http://lsr.dsi.unimi.it
%% This file is in the public domain.
\version "2.13.31"

\header {
  lsrtags = "pitches"

  texidoc = "
Clefs can be transposed by arbitrary amounts, not just by octaves.

"
  doctitle = "Clefs can be transposed by arbitrary amounts"
} % begin verbatim

\relative c' {
  \clef treble
  c4 c c c
  \clef "treble_8"
  c4 c c c
  \clef "treble_5"
  c4 c c c
  \clef "treble^3"
  c4 c c c
}

