%% Do not edit this file; it is automatically
%% generated from LSR http://lsr.dsi.unimi.it
%% This file is in the public domain.
\version "2.13.31"

\header {
  lsrtags = "keyboards, tweaks-and-overrides"

  texidoc = "
The appearance of pedal brackets may be altered in different ways.

"
  doctitle = "Fine-tuning pedal brackets"
} % begin verbatim

\paper { ragged-right = ##f }
\relative c'' {
  c2\sostenutoOn c
  c2\sostenutoOff c
  \once \override Staff.PianoPedalBracket #'shorten-pair = #'(-7 . -2)
  c2\sostenutoOn c
  c2\sostenutoOff c
  \once \override Staff.PianoPedalBracket #'edge-height = #'(0 . 3)
  c2\sostenutoOn c
  c2\sostenutoOff c
}
