%% Do not edit this file; it is automatically
%% generated from LSR http://lsr.dsi.unimi.it
%% This file is in the public domain.
\version "2.13.31"

\header {
  lsrtags = "text, vocal-music"

  texidoc = "
This can be achieved by separating those syllables by tildes.

"
  doctitle = "How to put ties between syllables in lyrics"
} % begin verbatim

\lyrics {
  wa~o~a
}

