% Do not edit this file; it is automatically
% generated from Documentation/snippets/new
% This file is in the public domain.
%% Note: this file works from version 2.13.10
\version "2.13.31"

\header {
%% Translation of GIT committish: 0b55335aeca1de539bf1125b717e0c21bb6fa31b
  texidoces = "
La tablatura se puede formatear utilizando letras en lugar de números.

"

  doctitlees = "Formateado de tablaturas con letras"

  lsrtags = "staff-notation, fretted-strings"

  texidoc = "
Tablature can be formatted using letters instead of numbers.

"
  doctitle = "Letter tablature formatting"
} % begin verbatim


music = \relative c {
  c4 d e f
  g4 a b c
  d4 e f g
}

<<
  \new Staff {
    \clef "G_8"
    \music
  }
  \new TabStaff \with {
    tablatureFormat = #fret-letter-tablature-format
  }
  {
    \music
  }
>>
