%% Do not edit this file; it is automatically
%% generated from LSR http://lsr.dsi.unimi.it
%% This file is in the public domain.
\version "2.13.31"

\header {
  lsrtags = "expressive-marks, tweaks-and-overrides"

%% Translation of GIT committish: 0b55335aeca1de539bf1125b717e0c21bb6fa31b
  texidoces = "
Se pueden aplicar puntas de flecha a los elementos de extensión de
texto y de línea (como el Glissando).

"
  doctitlees = "Puntas de flecha para las líneas"

  texidoc = "
Arrows can be applied to text-spanners and line-spanners (such as the
Glissando).

"
  doctitle = "Line arrows"
} % begin verbatim

\relative c'' {
  \override TextSpanner #'bound-padding = #1.0
  \override TextSpanner #'style = #'line
  \override TextSpanner #'(bound-details right arrow) = ##t
  \override TextSpanner #'(bound-details left text) = #"fof"
  \override TextSpanner #'(bound-details right text) = #"gag"
  \override TextSpanner #'(bound-details right padding) = #0.6

  \override TextSpanner #'(bound-details right stencil-align-dir-y) = #CENTER
  \override TextSpanner #'(bound-details left stencil-align-dir-y) = #CENTER

  \override Glissando #'(bound-details right arrow) = ##t
  \override Glissando #'arrow-length = #0.5
  \override Glissando #'arrow-width = #0.25

  a8\startTextSpan gis a4 b\glissando b,
  g'4 c\stopTextSpan c2
}
