% Do not edit this file; it is automatically
% generated from Documentation/snippets/new
% This file is in the public domain.
%% Note: this file works from version 2.13.4
\version "2.13.31"

\header {
%% Translation of GIT committish: 0b55335aeca1de539bf1125b717e0c21bb6fa31b
  texidoces = "
Utilice un texto de marcado para sustituir el glifo de clave (TAB) con
una fuente tipográfica moderna.

"
  doctitlees = "Clave de texto TAB moderna para tablatura"

  lsrtags = "staff-notation, fretted-strings"

  texidoc = "
Use a markup text to replace the (TAB) clef glyph with a modern font.

"
  doctitle = "Modern TAB text clef"
} % begin verbatim


\markup {
  This snippet is deprecated as of version 2.13.4 and will be removed
  in version 2.14.
}
