%% Do not edit this file; it is automatically
%% generated from LSR http://lsr.dsi.unimi.it
%% This file is in the public domain.
\version "2.13.31"

\header {
  lsrtags = "template"

%% Translation of GIT committish: 0b55335aeca1de539bf1125b717e0c21bb6fa31b
  texidoces = "

Esta plantilla muestra el uso de contextos @code{StaffGroup} y
@code{GrandStaff} anidados para sub-agrupar instrumentos del mismo
tipo, y el uso de @code{\\transpose} para los instrumentos
transpositores.  Toda la música que está dentro de variables se
almacena en Do.  La música se puede introducir en Do, o (de forma
alternativa) escribirse en el tono del instrumento y transportada
a Do antes de ser asignada a una variable.

"
  doctitlees = "Plantilla de orquesta con coro y piano"

%% Translation of GIT committish: 64feeff58e5ce3397de87188a08ac99f7ef8e37b

  texidocde = "
Diese Vorlage zeigt die Benutzung von geschachtelten
@code{StaffGroup}- und @code{GrandStaff}-Kontexte, um
Instrumente in Untergruppen zu unterteilen, und die
Benutzung von @code{\\transpose} für transponierende
Instrumente.  Alle Noten werden in C geschrieben.  Noten
können in C eingegeben werden, oder auch in der Tonart
des Instrumentes: dann müssen sie zuerst nach C transponiert
werden, bevor sie einer Variable zugewiesen werden.

"
  doctitlede = "Orchester Chor und Klavier"

%% Translation of GIT committish: bdfe3dc8175a2d7e9ea0800b5b04cfb68fe58a7a
  texidocfr = "
Ce canevas illustre l'utilisation de contextes @code{StaffGroup} pour
regrouper les instruments selon leur famille, imbriqués dans un
@code{GrandStaff}, ainsi que le recours à la fonction @code{\\transpose}
pour les instruments transpositeurs.  Dans tous les identificateurs, la
musique est stockée en ut.  Les notes peuvent tout aussi bien être
saisies en ut ou dans la tonalité particulière de l'instrument avant
d'être transposées puis affectées à une variable.

"
  doctitlefr = "Orchestre chœur et piano"

  texidoc = "
This template demonstrates the use of nested @code{StaffGroup} and
@code{GrandStaff} contexts to sub-group instruments of the same type
together, and the use of @code{\\transpose} for transposing
instruments.  All music in variables is stored in C.  Music may be
entered in C or, alternatively, entered in the instrument key and
transposed to C before being assigned to a variable.

"
  doctitle = "Orchestra choir and piano template"
} % begin verbatim

#(set-global-staff-size 17)

\paper {
  indent = 3.0\cm
  short-indent = 1.5\cm
}

fluteMusic = \relative c { \key c \major c'1 d }
oboeMusic = \relative c { \key c \major c'1 d }
clarinetMusic = \relative c { \key c \major c'1 d }
bassoonMusic = \relative c { \clef bass \key c \major c1 d }
trumpetMusic = \relative c { \key c \major c''1 d }
tromboneMusic = \relative c { \key c \major c1 d }
hornIMusic = \relative c { c'1 d }
hornIIMusic = \relative c { c1 d }
percussionMusic = \relative c { \key c \major c1 d }
sopranoMusic = \relative c'' { \key c \major c1 d }
sopranoLyrics = \lyricmode { Sop -- ra }
altoIMusic = \relative c' { \key c \major c1 d }
altoILyrics = \lyricmode { A -- one }
altoIIMusic = \relative c' { \key c \major c1 d }
altoIILyrics = \lyricmode { A -- two }
tenorMusic = \relative c' { \key c \major c1 d }
tenorLyrics = \lyricmode { Ten -- or }
pianoRHMusic = \relative c { \key c \major c'1 d }
pianoLHMusic = \relative c { \key c \major c1 d }
violinIMusic = \relative c { \key c \major c'1 d }
violinIIMusic = \relative c { \key c \major c'1 d }
violaMusic = \relative c { \clef alto \key c \major c'1 d }
celloMusic = \relative c { \clef bass \key c \major c1 d }
bassMusic = \relative c { \clef "bass_8" \key c \major c,1 d }

\score {
  \new GrandStaff = "GrandStaff_score" <<
    \new StaffGroup = "StaffGroup_woodwinds" <<
      \new Staff = "Staff_flute" {
        \set Staff.instrumentName = #"Flute"
        \fluteMusic
      }
      \new Staff = "Staff_oboe" {
        \set Staff.instrumentName = #"Oboe"
        \oboeMusic
      }
      \new Staff = "Staff_clarinet" {
        \set Staff.instrumentName = \markup \concat { "Clarinet in B" \flat }
        \transposition bes
        \transpose bes c' \clarinetMusic
      }
      \new Staff = "Staff_bassoon" {
        \set Staff.instrumentName = #"Bassoon"
        \bassoonMusic
      }
    >>
    \new StaffGroup = "StaffGroup_brass" <<
      \new GrandStaff <<
        \new Staff = "Staff_hornI" {
          \set Staff.instrumentName = #"Horn I"
          \transposition f
          \transpose f c' \hornIMusic
        }
        \new Staff = "Staff_hornII" {
          \set Staff.instrumentName = #"Horn II"
          \clef bass
          \transposition f'
          \transpose f c \hornIIMusic
        }
      >>
      \new Staff = "Staff_trumpet" {
        \set Staff.instrumentName = #"Trumpet in C"
        \trumpetMusic
      }
      \new Staff = "Staff_trombone" {
        \set Staff.instrumentName = #"Trombone"
        \clef bass
        \tromboneMusic
      }
    >>
    \new RhythmicStaff = "RhythmicStaff_percussion" <<
      \set RhythmicStaff.instrumentName = #"Percussion"
      \percussionMusic
    >>
    \new PianoStaff <<
      \set PianoStaff.instrumentName = #"Piano"
      \new Staff { \pianoRHMusic }
      \new Staff {
        \clef bass
        \pianoLHMusic
      }
    >>
    \new ChoirStaff = "ChoirStaff_choir" <<
      \new Staff = "Staff_soprano" {
        \set Staff.instrumentName = #"Soprano"
        \new Voice = "soprano"
        \sopranoMusic
      }
      \new Lyrics \lyricsto "soprano" { \sopranoLyrics }
      \new GrandStaff = "GrandStaff_altos" \with { \accepts Lyrics } <<
        \new Staff = "Staff_altoI"  {
          \set Staff.instrumentName = #"Alto I"
          \new Voice = "altoI"
          \altoIMusic
        }
        \new Lyrics \lyricsto "altoI" { \altoILyrics }
        \new Staff = "Staff_altoII" {
          \set Staff.instrumentName = #"Alto II"
          \new Voice = "altoII"
          \altoIIMusic
        }
        \new Lyrics \lyricsto "altoII" { \altoIILyrics }
      >>
      \new Staff = "Staff_tenor" {
        \set Staff.instrumentName = #"Tenor"
        \clef "treble_8"
        \new Voice = "tenor"
        \tenorMusic
      }
      \new Lyrics \lyricsto "tenor" { \tenorLyrics }
    >>
    \new StaffGroup = "StaffGroup_strings" <<
      \new GrandStaff = "GrandStaff_violins" <<
        \new Staff = "Staff_violinI" {
          \set Staff.instrumentName = #"Violin I"
          \violinIMusic
        }
        \new Staff = "Staff_violinII" {
          \set Staff.instrumentName = #"Violin II"
          \violinIIMusic
        }
      >>
      \new Staff = "Staff_viola" {
        \set Staff.instrumentName = #"Viola"
        \violaMusic
      }
      \new Staff = "Staff_cello" {
        \set Staff.instrumentName = #"Cello"
        \celloMusic
      }
      \new Staff = "Staff_bass" {
        \set Staff.instrumentName = #"Double Bass"
        \bassMusic
      }
    >>
  >>
}
