%% Do not edit this file; it is automatically
%% generated from LSR http://lsr.dsi.unimi.it
%% This file is in the public domain.
\version "2.13.31"

\header {
  lsrtags = "rhythms"

%% Translation of GIT committish: 0b55335aeca1de539bf1125b717e0c21bb6fa31b
  texidoces = "

Cuando se colocan figuras sobre líneas adicionales, sus barras se
sitúan generalmente en medio del pentagrama.  La barra de las notas de
adorno es más corta y las notas de adorno sobre líneas adicionales
podrían tener la barra fuera del pentagrama.  Podemos corregir este
barrado para las notas de adorno.

"
  doctitlees = "Colocar las barras de las notas de adorno a la misma altura que las barras de notas normales"



  texidoc = "
When notes are placed on ledger lines, their beams are usually centred
on the stave.  Grace notes beams are shorter and grace notes on ledger
lines may well have beams outside the stave.  You can override this
beaming for grace notes.

"
  doctitle = "Positioning grace note beams at the height of normal note beams"
} % begin verbatim

\relative c {
  f8[ e]
  \grace {
    f8[ e]
    \override Stem  #'no-stem-extend = ##f
    f8[ e]
    \revert Stem #'no-stem-extend
  }
  f8[ e]
}

