%% Do not edit this file; it is automatically
%% generated from LSR http://lsr.dsi.unimi.it
%% This file is in the public domain.
\version "2.13.31"

\header {
  lsrtags = "vocal-music, template"

  texidoc = "
SATB choir template (four staves)

"
  doctitle = "SATB Choir template - four staves"
} % begin verbatim

global = {
  \key c \major
  \time 4/4
}
sopranonotes = \relative c'' {c2 d2}
sopranowords = \lyricmode { do do }
altonotes = \relative c'' {c2 d2}
altowords = \lyricmode { re re }
tenornotes = {
  \clef "G_8" c2 d2}
tenorwords = \lyricmode { mi mi }
bassnotes = {
  \clef bass c2 d2}
basswords = \lyricmode { mi mi }

\score{
  \context ChoirStaff
  <<
    \context Staff = soprano <<
      \context Voice = sop { << \global \sopranonotes >> }
      \lyricsto "sop" \new Lyrics \sopranowords
    >>
    \context Staff = alto <<
      \context Voice = alt { << \global \altonotes >> }
      \lyricsto "alt" \new Lyrics \altowords
    >>
    \context Staff = tenor <<
      \context Voice = ten { << \global \tenornotes >> }
      \lyricsto "ten" \new Lyrics \tenorwords
    >>
    \context Staff = bass <<
      \context Voice = bas { << \global \bassnotes >> }
      \lyricsto "bas" \new Lyrics \basswords
    >>
  >>
}


