%% Do not edit this file; it is automatically
%% generated from LSR http://lsr.dsi.unimi.it
%% This file is in the public domain.
\version "2.13.31"

\header {
  lsrtags = "staff-notation, tweaks-and-overrides"

  texidoc = "
The time signature can be enclosed within parentheses.

"
  doctitle = "Time signature in parentheses"
} % begin verbatim

\relative c'' {
  \override Staff.TimeSignature #'stencil = #(lambda (grob)
    (bracketify-stencil (ly:time-signature::print grob) Y 0.1 0.2 0.1))
  \time 2/4
  a4 b8 c
}

