% Do not edit this file; it is automatically
% generated from Documentation/snippets/new
% This file is in the public domain.
%% Note: this file works from version 2.13.31
\version "2.13.31"

\header {
  lsrtags="winds"
  texidoc="
The following music shows all of the woodwind diagrams currently
defined in LilyPond.
"
  doctitle = "Woodwind diagrams listing"

} % begin verbatim


\relative c' {
  \textLengthOn
  c1^
  \markup {
    \center-column {
      'piccolo
      " "
       \woodwind-diagram
                  #'piccolo
                  #'()
    }
  }

  c1^
  \markup {
    \center-column {
       'flute
       " "
       \woodwind-diagram
          #'flute
          #'()
    }
  }
  c1^\markup {
    \center-column {
      'oboe
      " "
      \woodwind-diagram
        #'oboe
        #'()
    }
  }

  c1^\markup {
    \center-column {
      'clarinet
      " "
      \woodwind-diagram
        #'clarinet
        #'()
    }
  }

  c1^\markup {
    \center-column {
      'bass-clarinet
      " "
      \woodwind-diagram
        #'bass-clarinet
        #'()
    }
  }

  c1^\markup {
    \center-column {
      'saxophone
      " "
      \woodwind-diagram
        #'saxophone
        #'()
    }
  }

  c1^\markup {
    \center-column {
      'bassoon
      " "
      \woodwind-diagram
        #'bassoon
        #'()
    }
  }

  c1^\markup {
    \center-column {
      'contrabassoon
      " "
      \woodwind-diagram
        #'contrabassoon
        #'()
    }
  }
}
