\version "2.13.22"

\header {

    texidoc = "Minor chords may be printed as lowercase letters,
  in which case the `m' suffix is omitted in the output."

}


\chords {
  d:m
  \set chordNameLowercaseMinor = ##t
  d:m
}
