\version "2.12.0"

\header {
  texidoc = "Scripts can also be attached to chord elements.
They obey manual direction indicators."
}

\relative c'' {
  < c-. >4
  < c-> >4
  < c-. e-. g-. b-. >4
  < c^^ >4
  < c_^ >4
  < c_^ e^^ >4
  < c_^ e_^ >4
}
