\version "2.12.0"

\header {
  texidoc = "Sublist of grob property lists may be also tuned.  In the
next example, the @code{beamed-lengths} property of the @code{Stem}
grob is tweaked."
}

\relative c' {
  \override Stem #'details #'beamed-lengths = #'(6 10 8)
  c8[ c] c16[ c] c32[ c]
  \revert Stem #'details
  c8[ c] c16[ c] c32[ c]
}
