\header {

  texidoc = "By setting @code{page-top-space,} the Y position of the
first system can be forced to be uniform."

}
\version "2.12.0"

#(set-default-paper-size "a6")

\book {
  \score {

    \relative c' {
      c1\break\pageBreak
      c1\break\pageBreak
      c1
      \break\pageBreak
      \override TextScript #'padding = #20
      c1^"bla"
    }
  }

  \paper {
    page-top-space = 3 \cm
  }
}

